<svg xmlns="http://www.w3.org/2000/svg" width="24" height="24" viewBox="0 0 24 24" fill="none">
  <g clip-path="url(#clip0_1216_18547)">
    <path d="M6 12H18" stroke="#19323D" stroke-linecap="round" stroke-linejoin="round" />
  </g>
  <defs>
    <clipPath id="clip0_1216_18547">
      <rect width="24" height="24" fill="white" />
    </clipPath>
  </defs>
</svg>